<svg width="24" height="24" viewBox="0 0 24 24" fill="none" xmlns="http://www.w3.org/2000/svg">
<path d="M21.4465 11.0965C21.074 7.159 18.3155 3.949 14.6635 2.8805C14.8035 3.227 14.8825 3.604 14.8825 4C14.8825 5.6545 13.537 7 11.8825 7C11.114 7 10.3825 6.709 9.823 6.181C9.522 5.8965 9.5085 5.422 9.7925 5.1205C10.077 4.819 10.5525 4.8065 10.853 5.09C11.1325 5.3545 11.498 5.5 11.8825 5.5C12.7095 5.5 13.3825 4.827 13.3825 4C13.3825 3.1855 12.7295 2.5245 11.92 2.504C7.047 2.5445 3.0095 6.273 2.5535 11.0965C1.8955 11.614 1.5 12.406 1.5 13.25C1.5 14.419 2.2415 15.4465 3.314 15.8345C4.8355 19.2885 8.2045 21.5 12 21.5C15.7955 21.5 19.1645 19.2885 20.686 15.8345C21.7585 15.4465 22.5 14.419 22.5 13.25C22.5 12.406 22.1045 11.614 21.4465 11.0965ZM7.5 11.5C7.5 10.9475 7.9475 10.5 8.5 10.5C9.0525 10.5 9.5 10.9475 9.5 11.5C9.5 12.0525 9.0525 12.5 8.5 12.5C7.9475 12.5 7.5 12.0525 7.5 11.5ZM15.906 15.7505C14.9095 16.8625 13.486 17.5 12 17.5C10.515 17.5 9.092 16.8625 8.0945 15.7505C7.8175 15.4425 7.8435 14.968 8.1515 14.6915C8.461 14.4145 8.9345 14.441 9.2105 14.749C9.9245 15.544 10.941 16 12 16C13.06 16 14.0765 15.544 14.7885 14.7495C15.065 14.4415 15.539 14.415 15.8475 14.6915C16.156 14.968 16.182 15.442 15.906 15.7505ZM15.5 12.5C14.9475 12.5 14.5 12.0525 14.5 11.5C14.5 10.9475 14.9475 10.5 15.5 10.5C16.0525 10.5 16.5 10.9475 16.5 11.5C16.5 12.0525 16.0525 12.5 15.5 12.5Z" fill="#8B95B9"/>
</svg>
