<svg width="24" height="24" viewBox="0 0 24 24" fill="none" xmlns="http://www.w3.org/2000/svg">
<path d="M5 4C3.43 4 2.13977 5.21 2.00977 6.75L12 12.1445L21.9902 6.75C21.8602 5.21 20.57 4 19 4H5ZM2 8.44531V17C2 18.655 3.345 20 5 20H19C20.655 20 22 18.655 22 17V8.44531L12.3555 13.6602C12.2455 13.7202 12.125 13.75 12 13.75C11.875 13.75 11.7545 13.7202 11.6445 13.6602L2 8.44531Z" fill="#8B95B9"/>
</svg>
