<svg width="24" height="24" viewBox="0 0 24 24" fill="none" xmlns="http://www.w3.org/2000/svg">
<path d="M20.793 6.293L12 15.086L3.207 6.293C2.8165 5.9025 2.1835 5.9025 1.793 6.293C1.4025 6.6835 1.4025 7.3165 1.793 7.707L11.293 17.207C11.4885 17.4025 11.744 17.5 12 17.5C12.256 17.5 12.5115 17.4025 12.707 17.207L22.207 7.707C22.5975 7.3165 22.5975 6.6835 22.207 6.293C21.8165 5.9025 21.1835 5.9025 20.793 6.293Z" fill="#8B95B9"/>
</svg>
