<svg width="24" height="24" viewBox="0 0 24 24" fill="none" xmlns="http://www.w3.org/2000/svg">
<path d="M19.4116 5.47151C16.8501 5.20451 14.6006 3.80051 13.4881 2.98751C12.5986 2.33701 11.4021 2.33701 10.5126 2.98751C9.39955 3.80051 7.15055 5.20451 4.58905 5.47151C3.66055 5.56801 2.96405 6.37051 3.00355 7.29751C3.41255 16.867 9.41955 20.4545 11.2511 21.3265C11.4891 21.44 11.7451 21.4965 12.0006 21.4965C12.2561 21.4965 12.5121 21.4395 12.7501 21.3265C14.5816 20.4545 20.5886 16.867 20.9976 7.29751C21.0366 6.37051 20.3401 5.56801 19.4116 5.47151Z" fill="#8B95B9"/>
</svg>
